Airbnb Analysis in Copenhagen – Dinara Zhorabek
…
The next stat we chose to look at was the average number of people accommodated in each listing, or basically how many people can fit, by neighborhood. There is much less variety here with Nrrebro having a mean of approximately 3 and Brnshj-Husum having a mean of almost 4. Part of the reason for the smaller range is likely due to the fact that these are all still in the same city—it’s not likely for some neighborhoods to have properties accommodating 20 while some only accommodate 1.

Code

propertytypebyneighborhood <- copenhagen %>% count(neighbourhood_cleansed, property_type, 
                                                   sort = TRUE)
propertytypebyneighborhood

# A tibble: 197 × 3
   neighbourhood_cleansed    property_type          n
   <chr>                     <chr>              <int>
 1 Indre By                  Entire rental unit  1108
 2 Nrrebro                   Entire rental unit  1107
 3 Vesterbro-Kongens Enghave Entire rental unit  1056
 4 sterbro                   Entire rental unit   691
 5 Frederiksberg             Entire rental unit   655
 6 Vesterbro-Kongens Enghave Entire condo         573
 7 Nrrebro                   Entire condo         517
 8 Amager Vest               Entire rental unit   457
 9 Amager st                 Entire rental unit   429
10 Indre By                  Entire condo         411
# ℹ 187 more rows
…
sapply(naive_raw, n_distinct)

neighbourhood_cleansed          property_type              room_type 
                    11                     45                      4 
        bathrooms_text    review_scores_value              value_bin 
                    20                    130                      3 
           value_label 
                     3 

Code

naive_raw %>%
  count(property_type, sort = TRUE)

# A tibble: 45 × 2
   property_type                   n
   <chr>                       <int>
 1 Entire rental unit           6055
 2 Entire condo                 2681
 3 Private room in rental unit   580
 4 Entire home                   481
 5 Entire townhouse              213
 6 Private room in condo         205
 7 Entire serviced apartment     124
 8 Entire villa                   89
 9 Private room in home           83
10 Entire loft                    66
# ℹ 35 more rows
…
