City service requests made in Vancouver, British Columbia from 2022 to the present. – quarto-portfolio
…
# A tibble: 4 × 2
  Channel    Count
  <chr>      <int>
1 WEB           27
2 Phone         25
3 Mobile App    11
4 Chat           1

On this date the most of requests came from WEB, Phone channels.

birthday_reqs_types <- birthday_reqs %>% group_by(Service.request.type) %>% summarise(Count = n()) %>% arrange(desc(Count))
birthday_reqs_types

# A tibble: 31 × 2
   Service.request.type                   Count
   <chr>                                  <int>
 1 Missed Green Bin Pickup Case               9
 2 Green Bin Request Case                     7
 3 Abandoned Non-Recyclables-Small Case       6
 4 Business Licence Request Case              5
 5 Abandoned or Uninsured Vehicle Case        4
 6 Building and Development Inquiry Case      4
 7 Abandoned Recyclables Case                 2
 8 Sewer Drainage and Design Inquiry Case     2
 9 Street Light Out Case                      2
10 Street Light Pole Maintenance Case         2
# ℹ 21 more rows
…
